%YAML 1.1
%TAG !u! tag:unity3d.com,2011:
--- !u!21 &2100000
Material:
  serializedVersion: 6
  m_ObjectHideFlags: 0
  m_CorrespondingSourceObject: {fileID: 0}
  m_PrefabInstance: {fileID: 0}
  m_PrefabAsset: {fileID: 0}
  m_Name: Light_Claro
  m_Shader: {fileID: 4800000, guid: 3f387b3c7760d5a488b5596b42425701, type: 3}
  m_ShaderKeywords: 
  m_LightmapFlags: 5
  m_EnableInstancingVariants: 0
  m_DoubleSidedGI: 0
  m_CustomRenderQueue: -1
  stringTagMap: {}
  disabledShaderPasses: []
  m_SavedProperties:
    serializedVersion: 3
    m_TexEnvs:
    - _MKGlowTex:
        m_Texture: {fileID: 2800000, guid: 28695537cd6437b4cb1248827231d3ab, type: 3}
        m_Scale: {x: 1, y: 1}
        m_Offset: {x: 0, y: 0}
    - _MainTex:
        m_Texture: {fileID: 0}
        m_Scale: {x: 1, y: 1}
        m_Offset: {x: 0, y: 0}
    m_Floats:
    - _MKGlowOffSet: 0
    - _MKGlowPower: 0.52
    - _MKGlowTexStrength: 6
    m_Colors:
    - _Color: {r: 1, g: 1, b: 1, a: 1}
    - _MKGlowColor: {r: 0.7971698, g: 0.97446644, b: 1, a: 1}
    - _MKGlowTexColor: {r: 1, g: 1, b: 1, a: 1}
